my.vcd
$date
	Mon Jul 31 08:37:19 2023
$end

$version
	Synopsys VCS version S-2021.09
$end

$timescale
	1ns
$end

$comment Csum: 1 0f061d3f3ba92a89 $end


$scope module Top_tb $end

$scope module DUT $end
$var wire 1 ! InputKey $end
$var wire 1 " ValidCmd $end
$var wire 1 # RWMem $end
$var wire 8 $ Addr [7:0] $end
$var wire 8 % lnA [7:0] $end
$var wire 8 & lnB [7:0] $end
$var wire 4 ' Sel [3:0] $end
$var wire 1 ( ConfigDiv $end
$var wire 32 ) Din [31:0] $end
$var wire 1 * Clk $end
$var wire 1 + Reset $end
$var wire 1 , CalcActive $end
$var wire 1 - CalcMode $end
$var wire 1 . Busy $end
$var wire 1 / DOutValid $end
$var wire 4 0 DataOut [3:0] $end
$var wire 1 1 ClkTx $end
$var wire 1 2 TxDoneTemp $end
$var wire 1 3 ResetTmp $end
$var wire 1 4 RW_And $end
$var wire 1 5 CTRL_Active $end
$var wire 1 6 CTRL_Mode $end
$var wire 1 7 CTRL_AccessMem $end
$var wire 1 8 CTRL_RWMem $end
$var wire 1 9 CTRL_SampleData $end
$var wire 1 : CTRL_TxData $end
$var wire 8 ; M1_Res [7:0] $end
$var wire 8 < M2_Res [7:0] $end
$var wire 8 = ALU_Res [7:0] $end
$var wire 4 > Flags [3:0] $end
$var wire 4 ? M3_Res [3:0] $end
$var wire 32 @ Concat_Res [31:0] $end
$var wire 32 A Mem_Res [31:0] $end
$var wire 32 B MUXM4_Res [31:0] $end

$scope module M1 $end
$var wire 1 3 Sel $end
$var wire 8 % A [7:0] $end
$var wire 8 C B [7:0] $end
$var reg 8 ; Out [7:0] $end
$upscope $end


$scope module M2 $end
$var wire 1 3 Sel $end
$var wire 8 & A [7:0] $end
$var wire 8 D B [7:0] $end
$var reg 8 < Out [7:0] $end
$upscope $end


$scope module M3 $end
$var wire 1 3 Sel $end
$var wire 4 ' A [3:0] $end
$var wire 4 E B [3:0] $end
$var reg 4 ? Out [3:0] $end
$upscope $end


$scope module CTRL $end
$var wire 1 ! InputKey $end
$var wire 1 " ValidCmd $end
$var wire 1 4 RW $end
$var wire 1 2 TxDone $end
$var wire 1 * Clk $end
$var wire 1 + Reset $end
$var wire 1 5 Active $end
$var wire 1 6 Mode $end
$var wire 1 7 AccessMem $end
$var wire 1 8 RWMem $end
$var wire 1 9 SampleData $end
$var wire 1 : TxData $end
$var wire 1 . Busy $end

$scope module inputKey $end
$var wire 1 ! InputKey $end
$var wire 1 " ValidCmd $end
$var wire 1 + Reset $end
$var wire 1 * Clk $end
$var reg 1 5 Active $end
$var reg 1 6 Mode $end
$var reg 3 F cs [2:0] $end
$var reg 3 G ns [2:0] $end
$upscope $end


$scope module ctrl_RWF $end
$var wire 1 " ValidCmd $end
$var wire 1 4 RW $end
$var wire 1 5 Active $end
$var wire 1 6 Mode $end
$var wire 1 2 TxDone $end
$var wire 1 * Clk $end
$var wire 1 + Reset $end
$var reg 1 7 AccessMem $end
$var reg 1 8 RWMem $end
$var reg 1 9 SampleData $end
$var reg 1 : TxData $end
$var reg 1 H Busy $end
$var reg 3 I cs [2:0] $end
$var reg 3 J ns [2:0] $end
$upscope $end

$upscope $end


$scope module M_ALU $end
$var wire 8 ; A [7:0] $end
$var wire 8 < B [7:0] $end
$var wire 4 ? Sel [3:0] $end
$var reg 8 = Out [7:0] $end
$var reg 4 > Flag [3:0] $end
$var reg 8 K complementOf2 [7:0] $end
$upscope $end


$scope module Concat $end
$var wire 8 ; lnA [7:0] $end
$var wire 8 < lnB [7:0] $end
$var wire 8 = lnC [7:0] $end
$var wire 4 ? lnD [3:0] $end
$var wire 4 > lnE [3:0] $end
$var reg 32 @ Out [31:0] $end
$upscope $end


$scope module Mem $end
$var wire 32 @ Din [31:0] $end
$var wire 8 $ Addr [7:0] $end
$var wire 1 8 R_W $end
$var wire 1 7 Valid $end
$var wire 1 3 Reset $end
$var wire 1 * Clk $end
$var reg 32 A Dout [31:0] $end
$var integer 32 L position $end
$upscope $end


$scope module M4 $end
$var wire 1 6 Sel $end
$var wire 32 @ A [31:0] $end
$var wire 32 A B [31:0] $end
$var reg 32 B Out [31:0] $end
$upscope $end


$scope module serialTrans $end
$var wire 32 B DataIn [31:0] $end
$var wire 1 9 SampleData $end
$var wire 1 : StartTx $end
$var wire 1 3 Reset $end
$var wire 1 * Clk $end
$var wire 1 1 ClkTx $end
$var reg 1 2 TxDone $end
$var reg 1 M TxBusy $end
$var reg 4 N DataOut [3:0] $end
$var reg 32 O RegBank [31:0] $end
$var integer 32 P bitTransfer $end
$upscope $end


$scope module freqDiv $end
$var wire 32 ) Din [31:0] $end
$var wire 1 ( ConfigDiv $end
$var wire 1 3 Reset $end
$var wire 1 * Clk $end
$var wire 1 5 Enable $end
$var reg 1 Q ClkOut $end
$var reg 32 R configRegister [31:0] $end
$var reg 32 S counterPeriods [31:0] $end
$upscope $end

$upscope $end

$upscope $end

$enddefinitions $end

#0
$dumpvars
0Q
04
13
0M
02
07
0H
08
09
0:
05
06
b00000000000000000000000000000000 @
b00000000000000000000000000000000 A
b0000 >
b00000000 <
b0000 ?
b00000000000000000000000000000000 B
b00000000 =
b00000000 ;
b00000000000000000000000000000000 O
b00000000000000000000000000000000 P
bxxxxxxxx K
b00000000000000000000000000000001 R
b00000000000000000000000000000000 S
bxxx F
b000 I
b000 J
b000 G
b00000000000000000000000100000000 L
b0000 N
b0000 E
b00000000 D
b00000000 C
b00000010 $
b00000000 %
b00000000 &
b0000 '
b00000000000000000000000000000001 )
1+
b0000 0
0(
0!
1#
0"
0.
0,
0-
01
0/
0*
$end
#5
1*
b000 F
#10
0+
03
b10101011 %
b11001101 &
1!
1"
0*
b10101011 ;
b11001101 <
b001 G
b0010 >
b01111000 =
b00100000011110001100110110101011 @
b00100000011110001100110110101011 B
#15
1*
b001 F
b000 G
#20
0!
0*
b010 G
#25
1*
b010 F
b000 G
#30
1!
0*
b011 G
#35
1*
b011 F
b000 G
#40
0!
0*
b100 G
#45
1*
b100 F
b101 G
#50
1!
0*
b110 G
#55
1*
b110 F
15
1,
14
16
1-
b00000000000000000000000000000000 B
b101 J
#60
0!
0*
#65
1*
b00000000000000000000000000000001 S
1Q
11
b101 I
17
18
1H
1.
#70
0*
0Q
01
#75
1*
1Q
11
#80
0*
0Q
01
#85
1*
1Q
11
#90
0*
0Q
01
#95
1*
1Q
11
#100
0*
0Q
01
#105
1*
1Q
11
#110
0*
0Q
01
#115
1*
1Q
11
#120
0*
0Q
01
#125
1*
1Q
11
#130
0*
0Q
01
#135
1*
1Q
11
#140
0*
0Q
01
#145
1*
1Q
11
#150
0*
0Q
01
#155
1*
1Q
11
#160
0"
0*
0Q
01
b000 G
b000 J
#165
1*
b000 F
1Q
11
b000 I
05
0,
04
06
0-
07
08
0H
0.
b00100000011110001100110110101011 B
#170
1!
1"
0#
b00000000000000000000000000000010 )
1(
0*
b001 G
0Q
01
#175
1*
b001 F
b00000000000000000000000000000010 R
b00000000000000000000000000000000 S
b000 G
#180
0!
0(
0*
b010 G
#185
1*
b010 F
b000 G
#190
1!
0*
b011 G
#195
1*
b011 F
b000 G
#200
0!
0*
b100 G
#205
1*
b100 F
b101 G
#210
1!
0*
b110 G
#215
1*
b110 F
15
1,
16
1-
b00000000000000000000000000000000 B
b001 J
#220
0!
0*
#225
1*
b00000000000000000000000000000001 S
b001 I
17
1H
1.
b010 J
#230
0*
#235
1*
1Q
11
b010 I
b00100000011110001100110110101011 A
07
19
b00100000011110001100110110101011 B
b011 J
#240
0*
#245
1*
b00100000011110001100110110101011 O
0Q
01
b011 I
09
1:
b100 J
#250
0*
#255
1*
1Q
11
b100 I
b1011 N
b1011 0
b00000010000001111000110011011010 O
b00000000000000000000000000000001 P
1M
1/
#260
0*
#265
1*
0Q
01
#270
0*
#275
1*
1Q
11
b1010 N
b1010 0
b00000000001000000111100011001101 O
b00000000000000000000000000000010 P
#280
0*
#285
1*
0Q
01
#290
0*
#295
1*
1Q
11
b1101 N
b1101 0
b00000000000000100000011110001100 O
b00000000000000000000000000000011 P
#300
0*
#305
1*
0Q
01
#310
0*
#315
1*
1Q
11
b1100 N
b1100 0
b00000000000000000010000001111000 O
b00000000000000000000000000000100 P
#320
0*
#325
1*
0Q
01
#330
0*
#335
1*
1Q
11
b1000 N
b1000 0
b00000000000000000000001000000111 O
b00000000000000000000000000000101 P
#340
0*
#345
1*
0Q
01
#350
0*
#355
1*
1Q
11
b0111 N
b0111 0
b00000000000000000000000000100000 O
b00000000000000000000000000000110 P
#360
0*
#365
1*
0Q
01
#370
0*
#375
1*
1Q
11
b0000 N
b0000 0
b00000000000000000000000000000010 O
b00000000000000000000000000000111 P
#380
0*
#385
1*
0Q
01
#390
0*
#395
1*
1Q
11
b0010 N
b0010 0
b00000000000000000000000000000000 O
b00000000000000000000000000001000 P
#400
0*
#405
1*
0Q
01
#410
0*
#415
1*
1Q
11
b0000 N
b0000 0
b00000000000000000000000000001001 P
#420
0*
#425
1*
0Q
01
#430
0*
#435
1*
1Q
11
b00000000000000000000000000001010 P
#440
0*
#445
1*
0Q
01
#450
0*
#455
1*
1Q
11
b00000000000000000000000000001011 P
#460
0*
#465
1*
0Q
01
#470
0*
#475
1*
1Q
11
b00000000000000000000000000001100 P
#480
0*
#485
1*
0Q
01
#490
0*
#495
1*
1Q
11
b00000000000000000000000000001101 P
#500
0*
#505
1*
0Q
01
#510
0*
#515
1*
1Q
11
b00000000000000000000000000001110 P
#520
0*
#525
1*
0Q
01
#530
0*
#535
1*
1Q
11
b00000000000000000000000000001111 P
#540
0*
#545
1*
0Q
01
#550
0*
#555
1*
1Q
11
b00000000000000000000000000010000 P
#560
0*
#565
1*
0Q
01
#570
0*
#575
1*
1Q
11
b00000000000000000000000000010001 P
#580
0*
#585
1*
0Q
01
#590
0*
#595
1*
1Q
11
b00000000000000000000000000010010 P
#600
0*
#605
1*
0Q
01
#610
0*
#615
1*
1Q
11
b00000000000000000000000000010011 P
#620
0*
#625
1*
0Q
01
#630
0*
#635
1*
1Q
11
b00000000000000000000000000010100 P
#640
0*
#645
1*
0Q
01
#650
0*
#655
1*
1Q
11
b00000000000000000000000000010101 P
#660
0*
#665
1*
0Q
01
#670
0*
#675
1*
1Q
11
b00000000000000000000000000010110 P
#680
0*
#685
1*
0Q
01
#690
0*
#695
1*
1Q
11
b00000000000000000000000000010111 P
#700
0*
#705
1*
0Q
01
#710
0*
#715
1*
1Q
11
b00000000000000000000000000011000 P
#720
0*
#725
1*
0Q
01
#730
0*
#735
1*
1Q
11
b00000000000000000000000000011001 P
#740
0*
#745
1*
0Q
01
#750
0*
#755
1*
1Q
11
b00000000000000000000000000011010 P
#760
0*
#765
1*
0Q
01
#770
0*
#775
1*
1Q
11
b00000000000000000000000000011011 P
#780
0*
#785
1*
0Q
01
#790
0*
#795
1*
1Q
11
b00000000000000000000000000011100 P
#800
0*
#805
1*
0Q
01
#810
0*
#815
1*
1Q
11
b00000000000000000000000000011101 P
#820
0"
b00001010 %
b00001011 &
0*
b00001010 ;
b00001011 <
b0000 >
b00010101 =
b00000000000101010000101100001010 @
b000 G
#825
1*
b000 F
0Q
01
05
0,
06
0-
b00000000000101010000101100001010 B
#830
1!
1"
0*
b001 G
#835
1*
b001 F
b000 G
#840
0!
0*
b010 G
#845
1*
b010 F
b000 G
#850
1!
0*
b011 G
#855
1*
b011 F
b000 G
#860
0!
0*
b100 G
#865
1*
b100 F
b101 G
#870
0*
#875
1*
b101 F
15
1,
#880
0*
#885
1*
1Q
11
b00000000000000000000000000011110 P
#890
0*
#895
1*
0Q
01
#900
0*
#905
1*
1Q
11
b00000000000000000000000000011111 P
#910
0*
#915
1*
0Q
01
#920
0*
#925
1*
1Q
11
b00000000000000000000000000100000 P
#930
0*
#935
1*
0Q
01
#940
0*
#945
1*
1Q
11
b00000000000000000000000000100001 P
0M
0/
#950
0*
#955
1*
12
0Q
01
b000 J
#960
0*
#965
1*
02
1Q
11
b000 I
0:
0H
0.
b010 J
b00000000000000000000000000100010 P
#970
0*
#975
1*
0Q
01
b010 I
19
1H
1.
b011 J
#980
0*
#985
1*
b00000000000101010000101100001010 O
b00000000000000000000000000000000 P
1Q
11
b011 I
09
1:
b100 J
#990
0*
#995
1*
0Q
01
b100 I
#1000
0*
#1005
1*
1Q
11
b1010 N
b1010 0
b00000000000000010101000010110000 O
b00000000000000000000000000000001 P
1M
1/
#1010
0*
#1015
1*
0Q
01
#1020
0*
#1025
1*
1Q
11
b0000 N
b0000 0
b00000000000000000001010100001011 O
b00000000000000000000000000000010 P
#1030
0*
#1035
1*
0Q
01
#1040
0*
#1045
1*
1Q
11
b1011 N
b1011 0
b00000000000000000000000101010000 O
b00000000000000000000000000000011 P
#1050
0*
#1055
1*
0Q
01
#1060
0*
#1065
1*
1Q
11
b0000 N
b0000 0
b00000000000000000000000000010101 O
b00000000000000000000000000000100 P
#1070
0*
#1075
1*
0Q
01
#1080
0*
#1085
1*
1Q
11
b0101 N
b0101 0
b00000000000000000000000000000001 O
b00000000000000000000000000000101 P
#1090
0*
#1095
1*
0Q
01
#1100
0*
#1105
1*
1Q
11
b0001 N
b0001 0
b00000000000000000000000000000000 O
b00000000000000000000000000000110 P
#1110
0*
#1115
1*
0Q
01
#1120
0*
#1125
1*
1Q
11
b0000 N
b0000 0
b00000000000000000000000000000111 P
#1130
0*
#1135
1*
0Q
01
#1140
0*
#1145
1*
1Q
11
b00000000000000000000000000001000 P
#1150
0*
#1155
1*
0Q
01
#1160
0*
#1165
1*
1Q
11
b00000000000000000000000000001001 P
#1170
0*
#1175
1*
0Q
01
#1180
0*
#1185
1*
1Q
11
b00000000000000000000000000001010 P
#1190
0*
#1195
1*
0Q
01
#1200
0*
#1205
1*
1Q
11
b00000000000000000000000000001011 P
#1210
0*
#1215
1*
0Q
01
#1220
0*
#1225
1*
1Q
11
b00000000000000000000000000001100 P
#1230
0*
#1235
1*
0Q
01
#1240
0*
#1245
1*
1Q
11
b00000000000000000000000000001101 P
#1250
0*
#1255
1*
0Q
01
#1260
0*
#1265
1*
1Q
11
b00000000000000000000000000001110 P
#1270
0*
#1275
1*
0Q
01
#1280
0*
#1285
1*
1Q
11
b00000000000000000000000000001111 P
#1290
0*
#1295
1*
0Q
01
#1300
0*
#1305
1*
1Q
11
b00000000000000000000000000010000 P
#1310
0*
#1315
1*
0Q
01
#1320
0*
#1325
1*
1Q
11
b00000000000000000000000000010001 P
#1330
0*
#1335
1*
0Q
01
#1340
0*
#1345
1*
1Q
11
b00000000000000000000000000010010 P
#1350
0*
#1355
1*
0Q
01
#1360
0*
#1365
1*
1Q
11
b00000000000000000000000000010011 P
#1370
0*
#1375
1*
0Q
01
#1380
0*
#1385
1*
1Q
11
b00000000000000000000000000010100 P
#1390
0*
#1395
1*
0Q
01
#1400
0*
#1405
1*
1Q
11
b00000000000000000000000000010101 P
#1410
0*
#1415
1*
0Q
01
#1420
0*
#1425
1*
1Q
11
b00000000000000000000000000010110 P
#1430
0*
#1435
1*
0Q
01
#1440
0*
#1445
1*
1Q
11
b00000000000000000000000000010111 P
#1450
0*
#1455
1*
0Q
01
#1460
0*
#1465
1*
1Q
11
b00000000000000000000000000011000 P
#1470
0"
0*
b000 G
#1475
1*
b000 F
0Q
01
05
0,
